<svg xmlns="http://www.w3.org/2000/svg" width="13.531" height="16.094" viewBox="0 0 13.531 16.094">
  <defs>
    <style>
      .cls-1 {
        fill: #27aae1;
        fill-rule: evenodd;
      }
    </style>
  </defs>
  <path id="Фігура_17" data-name="Фігура 17" class="cls-1" d="M161.638,662.108c0.089-.081.141-0.126,0.191-0.174l4.253-4.075a0.87,0.87,0,0,1,1.24-.054,0.77,0.77,0,0,1,.083,1.046,1.89,1.89,0,0,1-.185.2q-2.709,2.6-5.419,5.2a4.126,4.126,0,0,0-.284.308,0.888,0.888,0,0,1-1.213.124,1.04,1.04,0,0,1-.087-0.075q-2.933-2.811-5.865-5.622a0.779,0.779,0,0,1-.081-1.119,0.855,0.855,0,0,1,1.237-.048c0.232,0.212.455,0.434,0.682,0.651q1.814,1.738,3.626,3.478a0.765,0.765,0,0,1,.107.18l0.083-.055v-0.217q0-6.046,0-12.093a1.378,1.378,0,0,1,.035-0.392,0.85,0.85,0,0,1,1.361-.372,0.762,0.762,0,0,1,.226.5,1.641,1.641,0,0,1,.009.281v12.333Z" transform="translate(-154.063 -648.781)"/>
</svg>
